<svg xmlns="http://www.w3.org/2000/svg" xmlns:xlink="http://www.w3.org/1999/xlink" preserveAspectRatio="xMidYMid" width="22" height="20" viewBox="0 0 22 20">
  <defs>
    <style>
      .cls-1 {
        fill: #111;
        fill-rule: evenodd;
      }
    </style>
  </defs>
  <path d="M22.003,4.000 L22.003,16.000 C22.054,18.157 20.350,19.948 18.197,20.000 C18.194,20.000 18.191,20.000 18.189,20.000 L3.835,20.000 C1.678,19.950 -0.032,18.161 0.010,16.000 L0.010,4.000 C-0.032,1.839 1.678,0.050 3.835,-0.000 L18.189,-0.000 C20.342,0.047 22.050,1.834 22.003,3.992 C22.003,3.995 22.003,3.997 22.003,4.000 ZM18.190,2.000 L18.189,2.000 L3.835,2.000 C2.759,2.026 1.908,2.921 1.933,3.999 L1.933,4.000 L1.933,16.000 C1.907,17.078 2.758,17.974 3.834,18.000 L3.835,18.000 L18.189,18.000 C19.265,17.974 20.116,17.080 20.090,16.002 L20.090,16.000 L20.090,4.000 C20.117,2.922 19.266,2.027 18.190,2.000 ZM14.055,14.954 C13.968,15.306 13.653,15.553 13.290,15.553 L13.289,15.553 C12.927,15.552 12.611,15.304 12.525,14.952 L11.000,8.723 L9.449,14.955 C9.361,15.306 9.045,15.553 8.684,15.553 C8.683,15.553 8.683,15.553 8.682,15.553 C8.320,15.552 8.005,15.303 7.919,14.951 L5.649,5.621 C5.545,5.198 5.805,4.771 6.228,4.668 C6.643,4.565 7.077,4.823 7.180,5.247 L8.692,11.465 L10.242,5.243 C10.329,4.892 10.644,4.645 11.006,4.645 L11.007,4.645 C11.370,4.646 11.685,4.894 11.772,5.246 L13.294,11.466 L14.835,5.244 C14.938,4.820 15.371,4.564 15.789,4.668 C16.211,4.773 16.468,5.201 16.363,5.625 L14.055,14.954 Z" class="cls-1"/>
</svg>
