<svg xmlns="http://www.w3.org/2000/svg" xmlns:xlink="http://www.w3.org/1999/xlink" preserveAspectRatio="xMidYMid" width="39.91" height="46" viewBox="0 0 39.91 46">
  <defs>
    <style>
      .cls-1 {
        fill: #000;
        fill-rule: evenodd;
      }
    </style>
  </defs>
  <path d="M36.900,46.000 L3.100,46.000 C1.400,46.000 -0.000,44.600 -0.000,42.900 L-0.000,3.100 C-0.000,1.400 1.400,0.000 3.100,0.000 L32.300,0.000 C33.300,0.000 33.700,0.000 33.800,0.000 L39.900,6.100 L39.900,42.900 C40.000,44.600 38.600,46.000 36.900,46.000 ZM33.900,1.600 L33.900,4.700 C33.900,5.500 34.600,6.200 35.400,6.200 L38.500,6.200 L33.900,1.600 ZM35.400,7.700 C33.700,7.700 32.300,6.300 32.300,4.600 C32.300,4.600 32.300,3.400 32.300,1.500 L3.100,1.500 C2.200,1.500 1.600,2.200 1.600,3.000 L1.600,42.800 C1.600,43.700 2.300,44.300 3.100,44.300 L36.900,44.300 C37.800,44.300 38.400,43.600 38.400,42.800 L38.500,7.700 L35.400,7.700 ZM26.186,34.386 L13.719,34.386 C11.284,34.386 9.239,32.341 9.239,29.906 L9.239,17.439 C9.239,15.004 11.284,12.959 13.719,12.959 L26.186,12.959 C28.621,12.959 30.666,15.004 30.666,17.439 L30.666,29.906 C30.666,32.341 28.621,34.386 26.186,34.386 ZM28.913,17.439 C28.913,15.978 27.744,14.809 26.186,14.712 L13.719,14.712 C12.258,14.712 11.089,15.881 10.992,17.439 L10.992,29.906 C10.992,31.367 12.161,32.536 13.719,32.633 L26.186,32.633 C27.647,32.633 28.815,31.464 28.913,29.906 L28.913,17.439 ZM19.959,26.712 L18.858,26.712 L18.858,28.911 C18.858,29.624 18.321,30.161 17.608,30.161 C16.895,30.161 16.358,29.624 16.358,28.911 L16.358,18.761 C16.358,18.049 16.895,17.511 17.608,17.511 L19.959,17.511 C22.495,17.511 24.558,19.575 24.558,22.111 C24.558,24.648 22.495,26.712 19.959,26.712 ZM19.959,20.011 L18.858,20.011 L18.858,24.212 L19.959,24.212 C21.117,24.212 22.058,23.270 22.058,22.111 C22.058,20.973 21.096,20.011 19.959,20.011 Z" class="cls-1"/>
</svg>
