<svg xmlns="http://www.w3.org/2000/svg" xmlns:xlink="http://www.w3.org/1999/xlink" preserveAspectRatio="xMidYMid" width="22" height="20" viewBox="0 0 22 20">
  <defs>
    <style>
      .cls-1 {
        fill: #111;
        fill-rule: evenodd;
      }
    </style>
  </defs>
  <path d="M18.184,20.000 L3.809,20.000 C1.653,19.953 -0.058,18.166 -0.011,16.008 C-0.011,16.006 -0.011,16.003 -0.011,16.000 L-0.011,4.000 C-0.062,1.842 1.644,0.052 3.801,0.000 C3.804,-0.000 3.806,-0.000 3.809,-0.000 L18.184,-0.000 C20.345,0.050 22.057,1.839 22.014,4.000 L22.014,16.000 C22.057,18.161 20.345,19.950 18.184,20.000 ZM20.089,16.000 L20.089,4.000 C20.115,2.922 19.263,2.027 18.185,2.000 L18.184,2.000 L3.809,2.000 C2.732,2.026 1.879,2.921 1.905,3.999 L1.905,4.000 L1.905,16.000 C1.878,17.078 2.730,17.974 3.808,18.000 L3.809,18.000 L18.184,18.000 C19.262,17.974 20.115,17.080 20.089,16.001 L20.089,16.000 ZM10.555,12.523 L9.747,12.523 L9.747,14.191 C9.747,14.855 9.197,15.395 8.522,15.395 C7.846,15.395 7.298,14.855 7.298,14.191 L7.298,5.777 C7.298,5.112 7.846,4.572 8.522,4.572 L10.555,4.572 C12.839,4.572 14.697,6.356 14.697,8.548 C14.697,10.740 12.839,12.523 10.555,12.523 ZM10.555,6.981 L9.747,6.981 L9.747,10.115 L10.555,10.115 C11.488,10.115 12.247,9.412 12.247,8.548 C12.247,7.684 11.488,6.981 10.555,6.981 Z" class="cls-1"/>
</svg>
